암웨이홈
세제용품,주택용,
바닥용 테이프 크리너
WHU3175K4	1075	1,690	2,600	8,700			

바닥용 테이프 크리너 교체용 (2롤)
WHU3176K4	1076	1,750	2,700	8,900			

L.O.C 바이오퀘스트 욕실 세정제
109861K	1254	4,160	6,400	7,000			

바이오퀘스트 변기세정제
109864K	1255	4,870	7,500	8,200			

L.O.C 바이오퀘스트 주택용 연마 세정제
110486K	1261	4,160	6,400	7,000			

L.O.C 바이오퀘스트 금속 세정제
112160K	1263	3,570	5,500	6,100			

L.O.C 바이오퀘스트 주택용 다목적 세정제
E0001K6	1267	5,580	8,600	9,500			

분무용기
110483K	1268	0	0	2,400			

펄수 살균 세정제(1L)
115410K	1270	11,750	18,100	19,900			

NEW 파워 버즈
WHU5764K	7764	910	1,400	6,000			

극세사 맙 세트
WHU5790K	7790	8,120	12,500	55,000			

극세사 맙
WHU5791K	7791	1,620	2,500	11,000			
총 상품갯수 : 12 개