아티스트리
스킨케어,남성용 스킨케어,
아티스트리 맨 스무스 쉐이브 폼
111226K1	4656	12,990	20,000	22,000			

아티스트리 맨 밸런싱 하이드레이터
111227K3	4665	21,230	32,700	36,000			

아티스트리 맨 인바이빙 에멀젼
111228K2	4666	23,640	36,400	40,000			

아티스트리 맨 차징 엘리먼트
111229K2	4667	29,550	45,500	50,000			

아티스트리 맨 젠틀 페이스 워시
111225JK3	4668	15,910	24,500	27,000			

아티스트리 맨 선물세트
260314K	4953	44,870	69,100	76,000			
총 상품갯수 : 6 개