아티스트리
스킨케어,토너,
베르가닉 클린큐어 토너
WHU5257K	3257	10,260	15,800	26,000			

하이드라V 소프트닝 로션
117644A	4106	17,140	26,400	29,000			

소프트닝 로션
113802V1	4282	33,640	51,800	57,000			

아이디얼 래디언스 일루미네이팅 모이스처 로션
116408A	4441	27,730	42,700	47,000			
총 상품갯수 : 4 개