아티스트리
스킨케어,모이스처라이저,
베르가닉 클린큐어 젤 로션
WHU5258K	3258	11,430	17,600	29,000			

하이드라V 젤 로션
117647V	4109	24,220	37,300	41,000			

리치 밀키 에멀젼
113806V1	4284	45,450	70,000	77,000			

아이디얼 래디언스 일루미네이팅 모이스처라이저
116410A	4443	31,880	49,100	54,000			
총 상품갯수 : 4 개