아티스트리
색조/향수,아이,아이브로우
오토메틱 아이브로우 펜슬 리필 - 브라운
110990D	4786	7,080	10,900	12,000			

오토메틱 아이브로우 펜슬 리필 - 소프트 블랙
110991D	4787	7,080	10,900	12,000			

오토메틱 아이브로우 펜슬 홀더
112145D1	4788	3,250	5,000	11,000			
총 상품갯수 : 3 개