아티스트리
스킨케어,스페셜케어,
인텐시브 어드밴스드 스킨 리피니셔
117842V	4076	52,530	80,900	89,000			

파워 시스템
117280X	4288	161,170	248,200	273,000			

아이디얼 래디언스 스팟 코렉터
116413A	4445	29,550	45,500	50,000			

인텐시브 스마트 레이저
116396V1	4523	194,810	300,000	330,000			

인텐시브 리뉴잉 필
242660K1	4532	70,840	109,100	120,000			

인텐시브 스킨케어 안티링클 퍼밍 씨럼
109709R1	4657	72,010	110,900	122,000			

에센셜 안티 블레미쉬
104134K	4717	15,320	23,600	26,000			

에센셜 폴리싱 스크럽
106399K1	4721	12,400	19,100	21,000			

에센셜 포어 클렌징 마스크
106400K1	4722	12,400	19,100	21,000			

에센셜 모이스처 인텐스 마스크
106401K2	4723	12,400	19,100	21,000			

아이디얼 래디언스 3D광채 마스크
265735K	4796	22,400	34,500	38,000			

유스 익스텐드 리프로그래밍 마스크
265758K	4797	28,310	43,600	48,000			

하이드라V 앰플 마스크
260140K	4919	14,740	22,700	25,000			

에센셜 크리미 마사지
111643K1	4938	20,060	30,900	34,000			
총 상품갯수 : 14 개