홈테크
생활가전,정수기,필터&기타
이스프링 정수기 필터 카트리지
100186K2	5109	152,270	234,500	258,000			

이스프링 전환기 키트(전환기+튜브)
100662K	5110	0	0	54,000			

이스프링 퍼싯 키트
100663K3	5111	0	0	57,000			

이스프링 설치서비스 Ⅰ-전환기
WHU3077K	5112	0	0	29,700			

이스프링 설치서비스 Ⅱ-퍼싯
WHU3078K	5113	0	0	49,500			

이스프링 물병 600ml
258730K	5287	0	0	8,500			

이스프링 물병 1700ml
259117K	5288	0	0	10,000			

이스프링 제품 안내서
261101K	5611	0	0	2,000			
총 상품갯수 : 8 개