뉴트리라이트
영양/건강,기초영양보급,어린이
뉴트리키즈 츄어블 칼슘
106557K	2031	19,480	30,000	33,000			

뉴트리키즈 푸로틴(베리)단백질
100325K7	2095	24,810	38,200	42,000			

뉴트리키즈 파이토 C 비타민
102179K1	2204	18,310	28,200	31,000			

뉴트리키즈 오메가 젤리
101789K4	2242	18,310	28,200	31,000			

뉴트리키즈 비타민 무기질
114167K	2909	32,470	50,000	55,000			
총 상품갯수 : 5 개