뉴트리라이트
영양/건강,식품/음료,
스트라이브 플러스 자몽향
103788KY	2063	15,320	23,600	26,000			

ㅤㅋㅞㄴ치 에이스 체리향
E9974KY	2103	10,060	15,500	17,000			

ㅤㅋㅞㄴ치8 탠저린/오렌지 향
E9971KY	2116	6,490	10,000	11,000			

ㅤㅋㅞㄴ치8 레몬/라임향
E9972KY	2117	6,490	10,000	11,000			
총 상품갯수 : 4 개