뉴트리라이트
영양/건강,바디키,
바디키 뉴트리션 바 7개입
261924K	2927	5,780	8,900	14,000			

바디키 뉴트리션 바 30개입
261925K	2928	23,570	36,300	57,000			

바디키 식사대용 쉐이크(바닐라향)
118851K	2951	25,970	40,000	44,000			

바디키 식사대용 쉐이크(믹스베리향)
116468K	2952	25,970	40,000	44,000			

바디키 식사대용 쉐이크(카페오레맛)
118850K	2953	25,970	40,000	44,000			
총 상품갯수 : 5 개