원포원
제지류,일반제지류,
행복한아름 뷰티소프트(35m*18)
LSP1403K	9750	1,580	2,300	12,700			

행복한아름 퓨어 소프트(45*18)
LSP1404K	9751	1,230	1,800	9,800			

행복한아름 에어 키친 타올(180*6)
LSP1406K	9753	750	1,100	5,900			

행복한아름 클린소프트
LSP1407K	9754	620	900	4,700			

후아 오리엔탈 순면커버 생리대 대형(34개입)
LSP2103K	9422	1,640	2,400	9,700			

후아 오리엔탈 순면커버 생리대 중형(34개입)
LSP2104K	9423	1,440	2,100	8,500			

후아 오리엔탈 순면커버 생리대 소형(34개입)
LSP2105K	9424	1,370	2,000	7,800			

후아 순면커버 생리대 대형(34개입)
LSP2106K	9425	1,990	2,900	11,400			

후아 순면커버 생리대 중형(34개입)
LSP2107K	9426	1,710	2,500	9,800			

후아 순면커버 생리대 소형(34개입)
LSP2108K	9427	1,580	2,300	9,100			

후아 데일리 순면커버 팬티라이너 롱(34개입)
LSP2110K	9429	820	1,200	4,600			

후아 허브 뷰티 클렌져
LSP1389H1	6922	3,420	5,000	16,500			
총 상품갯수 : 12 개