원포원
패션/기타,판매보조키트,보조용품 & 기타
3기 요리명장 레시피북
261850K	5170	0	0	5,000			

아티스트리 쇼핑백 (대)
WHU6088K	7080	0	0	1,800			

아티스트리 쇼핑백 (중)
WHU6089K	7081	0	0	1,600			

아티스트리 쇼핑백 (소)
WHU6090K	7082	0	0	1,400			

판매실적 뱃지 3％
260327K1	7500	0	0	1,500			

판매실적 뱃지 6％
260328K1	7501	0	0	1,500			

판매실적 뱃지 9％
260329K1	7502	0	0	1,500			

판매실적 뱃지 12%
260330K1	7503	0	0	1,500			

판매실적 뱃지 15％
260331K1	7504	0	0	1,500			

판매실적 뱃지 18％
260332K1	7505	0	0	1,500			

고객 주문서
SA0107K1	7510	0	0	1,100			

고객 기록 카드
SA2240K1	7512	0	0	220			

암웨이 쇼핑백（대）
WHU3213K2	7797	0	0	250			

암웨이 쇼핑백 (소）
WHU3214K2	7798	0	0	150			

기프트 박스 (대)
WHU6060K	7930	0	0	3,300			

기프트 박스 (중)
WHU6061K	7931	0	0	2,600			

기프트 박스 (소)
WHU6062K	7932	0	0	1,900			

기프트 백 (대)
WHU6063K	7933	0	0	700			

기프트 백 (중)
WHU6064K	7934	0	0	650			

기프트 백 (소)
WHU6059K	7935	0	0	600			
총 상품갯수 : 20 개