퍼스널케어
헤어/바디,헤어용품,스타일링
헤어 컨트롤 폼
E4689JK5	3168	6,170	9,500	10,500			

새티니크 파이널 스텝 피니싱 스프레이
116822K	3722	12,990	20,000	22,000			

새티니크 스타일링 크림
114954JK	3754	9,420	14,500	16,000			

새티니크 텍스처링 매트 왁스
110675JK	3775	9,420	14,500	16,000			

새티니크 스트레이트닝 밤
110676K	3776	9,420	14,500	16,000			

새티니크 샤인 스프레이
110685	3785	9,420	14,500	16,000			
총 상품갯수 : 6 개